module 0xacab.org/jrabbit/impatient-apt

go 1.13

require (
	github.com/godbus/dbus/v5 v5.0.3
	github.com/mitchellh/go-homedir v1.1.0
	github.com/pelletier/go-toml v1.6.0 // indirect
	github.com/spf13/afero v1.2.2 // indirect
	github.com/spf13/cast v1.3.1 // indirect
	github.com/spf13/cobra v0.0.5
	github.com/spf13/jwalterweatherman v1.1.0 // indirect
	github.com/spf13/pflag v1.0.5 // indirect
	github.com/spf13/viper v1.6.2
	golang.org/x/sys v0.0.0-20200202164722-d101bd2416d5 // indirect
	golang.org/x/text v0.3.2 // indirect
	gopkg.in/ini.v1 v1.52.0 // indirect
	gopkg.in/yaml.v2 v2.2.8 // indirect
)
